R Training - Exercises
…
Don’t forget to assign the result to a variable …

Show me how

dat <- read_csv(file = "ldt_data.csv")

Remove columns

Have a look at the data, by typing its name into the console.

Show me how

dat

# A tibble: 100 × 7
   id      age language rt_word rt_nonword acc_word acc_nonword
   <chr> <dbl>    <dbl>   <dbl>      <dbl>    <dbl>       <dbl>
 1 S001     22        1    379.       517.       99          90
 2 S002     33        1    312.       435.       94          82
 3 S003     23        1    405.       459.       96          87
 4 S004     28        1    298.       336.       92          76
 5 S005     26        1    316.       401.       91          83
 6 S006     29        1    357.       367.       96          78
 7 S007     20        1    373.       435.       95          86
 8 S008     30        1    327.       425.       91          80
 9 S009     26        1    306.       455.       94          86
10 S010     22        1    317.       414.       94          88
# … with 90 more rows
…
